11131111111313111113
13311311111131113111
33111111111131111113
11111111131111111131
11133111111111131111
33111111111111131311
11131311333113133311
11111111111311113111
13111131113111133111
13111311111133111131
11113131113111311313
13111111311311111131
11111113131111333111
11111131113331331311
13111111313111111111
11111313111111311111
31111111111131111111
31111113111111111111
13131111131111111311
11131131111331133311
